Username,Repository,Description,Link,Updated
hwalsuklee,tensorflow-mnist-VAE,Tensorflow implementation of variational auto-encoder for MNIST,github.com/hwalsuklee/tensorflow-mnist-VAE,"Apr 11, 2017"
ikostrikov,TensorFlow-VAE-GAN-DRAW,A collection of generative methods implemented with TensorFlow (Deep Convolutional Generative Adversarial Networks (D…,github.com/ikostrikov/TensorFlow-VAE-GAN-DRAW,"Apr 18, 2017"
y0ast,VAE-TensorFlow,Implementation of a Variational Auto-Encoder in TensorFlow,github.com/y0ast/VAE-TensorFlow,"Mar 20, 2017"
Chung-I,Variational-Recurrent-Autoencoder-Tensorflow,"A tensorflow implementation of ""Generating Sentences from a Continuous Space""",github.com/Chung-I/Variational-Recurrent-Autoencoder-Tensorflow,"Jul 14, 2018"
hardmaru,cppn-gan-vae-tensorflow,"Train CPPNs as a Generative Model, using Generative Adversarial Networks and Variational Autoencoder techniques to pr…",github.com/hardmaru/cppn-gan-vae-tensorflow,"Apr 1, 2016"
nicola-decao,s-vae-tf,Tensorflow implementation of Hyperspherical Variational Auto-Encoders,github.com/nicola-decao/s-vae-tf,"Dec 1, 2018"
altosaar,variational-autoencoder,Variational autoencoder implemented in tensorflow and pytorch (including inverse autoregressive flow),github.com/altosaar/variational-autoencoder,"Sep 18, 2019"
shaohua0116,VAE-Tensorflow,A Tensorflow implementation of a Variational Autoencoder for the deep learning course at the University of Southern C…,github.com/shaohua0116/VAE-Tensorflow,"Oct 4, 2019"
yzwxx,vae-celebA,Variational auto-encoder trained on celebA . All rights reserved.,github.com/yzwxx/vae-celebA,"Dec 14, 2017"
int8,VAE_tensorflow,Variational autoencoder in Tensorflow,github.com/int8/VAE_tensorflow,"Dec 15, 2016"
dancsalo,TensorFlow-VAE,TF Implementation of Convolutional Variational Autoencoder.,github.com/dancsalo/TensorFlow-VAE,"Oct 24, 2018"
hwalsuklee,tensorflow-mnist-CVAE,Tensorflow implementation of conditional variational auto-encoder for MNIST,github.com/hwalsuklee/tensorflow-mnist-CVAE,"Apr 25, 2017"
MINGUKKANG,VAE-tensorflow,Code for Variational AutoEncoder(VAE) using tensorflow,github.com/MINGUKKANG/VAE-tensorflow,"Feb 26, 2018"
alecGraves,BVAE-tf,Disentangled Variational Auto-Encoder in TensorFlow / Keras (Beta-VAE),github.com/alecGraves/BVAE-tf,"Oct 26, 2019"
yiyang92,vae_captioning,Implementation of Diverse and Accurate Image Description Using a Variational Auto-Encoder with an Additive Gaussian E…,github.com/yiyang92/vae_captioning,"Apr 5, 2018"
adler-j,minimal_vae,A minimal implementation of an Variational Auto-Encoder,github.com/adler-j/minimal_vae,"Sep 5, 2018"
berleon,tensorflow_vae,A variational autoencoder in tensorflow,github.com/berleon/tensorflow_vae,"Mar 23, 2016"
HareeshBahuleyan,tf-var-attention,Tensorflow Implementation of Variational Attention for Sequence to Sequence Models (COLING 2018),github.com/HareeshBahuleyan/tf-var-attention,"Sep 4, 2019"
vithursant,VAE-Gumbel-Softmax,An implementation of a Variational-Autoencoder using the Gumbel-Softmax reparametrization trick in TensorFlow (tested…,github.com/vithursant/VAE-Gumbel-Softmax,"Apr 9, 2018"
dillonalaird,VAE,Tensorflow implementation of Auto-Encoding Variational Bayes,github.com/dillonalaird/VAE,"Nov 29, 2016"
dongwookim-ml,VAE-MF-TensorFlow,Variational Auto-Encoder Matrix Factorisation,github.com/dongwookim-ml/VAE-MF-TensorFlow,"May 2, 2017"
tgsmith61591,smrt,Handle class imbalance intelligently by using variational auto-encoders to generate synthetic observations of your mi…,github.com/tgsmith61591/smrt,"Jul 31, 2019"
wangg12,vi_vae_gmm,Variational Inference/Variational AutoEncoder + Gaussian Mixtures implementation in zhusuan,github.com/wangg12/vi_vae_gmm,"Jun 3, 2017"
andymiller,vae-flow,Amortized variational inference with tensorflow.,github.com/andymiller/vae-flow,"Nov 1, 2016"
tegg89,VAE-Tensorflow,Variational Auto-Encoder implementation in Tensorflow,github.com/tegg89/VAE-Tensorflow,"Jan 22, 2017"
sbavon,Deep-Feature-Consistent-Variational-AutoEncoder-in-Tensorflow,implement Deep Feature Consisten Variational Autoencoder in Tensorflow,github.com/sbavon/Deep-Feature-Consistent-Variational-AutoEncoder-in-Tensorflow,"Aug 24, 2018"
ChengBinJin,VAE-Tensorflow,Variational Autoencoder Tensorflow Implementation,github.com/ChengBinJin/VAE-Tensorflow,"Dec 26, 2018"
WojciechMormul,vae,Generate new images with Variational Autoencoder and Tensorflow.,github.com/WojciechMormul/vae,"Apr 18, 2018"
zotroneneis,tensorflow_deep_learning_models,"TensorFlow implementations of several deep learning models (e.g. variational autoencoder, RNN, ...)",github.com/zotroneneis/tensorflow_deep_learning_models,"Jun 26, 2018"
kremerj,vae,Variational autoencoder implementation in tensorflow following the classic paper by Kingma and Welling.,github.com/kremerj/vae,"Jul 12, 2017"
hkiyomaru,tensorflow-vae,tensorflow implementation of variational autoencoder,github.com/hkiyomaru/tensorflow-vae,"Nov 11, 2016"
DongjunLee,vae-tensorflow,TensorFlow implementation of Auto-Encoding Variational Bayes.,github.com/DongjunLee/vae-tensorflow,"Feb 3, 2018"
hardmaru,diff-vae-tensorflow,skeleton variation encoder code in tensorflow,github.com/hardmaru/diff-vae-tensorflow,"May 22, 2016"
mkfilipiuk,VAE-CF,Variational Autoencoder for Collaborative Filtering implementation in TensorFlow,github.com/mkfilipiuk/VAE-CF,"Jul 23, 2019"
andrewliao11,VAE-tensorflow,Tensorflow implementation of VAE(variational autoencoder),github.com/andrewliao11/VAE-tensorflow,"Jan 31, 2017"
generic-github-user,TensorFlow.js-VAE,A variational autoencoder for TensorFlow.js,github.com/generic-github-user/TensorFlow.js-VAE,"Jul 5, 2018"
YunjaeChoi,vaemols,Variational Autoencoder for Molecules,github.com/YunjaeChoi/vaemols,"Jan 2, 2019"
tayden,VAE-Latent-Space-Explorer,Interactive exploration of MNIST variational autoencoder latent space with React and tensorflow.js.,github.com/tayden/VAE-Latent-Space-Explorer,"May 22, 2019"
bluebelmont,Variational-Autoencoder,Simple Tensorflow Implementation of VAE,github.com/bluebelmont/Variational-Autoencoder,"Dec 28, 2017"
AFAgarap,clustering_vae,"Code implementation for ""Improved Clustering Performance using Latent Data Representation from Variational Autoencode…",github.com/AFAgarap/clustering_vae,"Nov 7, 2019"
davidsandberg,LadderVAE,Tensorflow implementation of the Ladder Variational Autoencoder,github.com/davidsandberg/LadderVAE,"Sep 11, 2019"
arsarabi,vae,Implementation of a variational autoencoder in TensorFlow,github.com/arsarabi/vae,"Sep 22, 2018"
choo8,tensorflow-CVAE,Implementation of the Conditional Variational Auto-Encoder (CVAE) in Tensorflow,github.com/choo8/tensorflow-CVAE,"Feb 14, 2018"
dreamgonfly,VAE,"Tensorflow implementation, explanation and experiments of ""Variational Auto-Encoders""",github.com/dreamgonfly/VAE,"May 11, 2017"
fomorians,vae,Variational autoencoder with TF Eager and Probability.,github.com/fomorians/vae,"Jan 15, 2019"
hongzimao,vae,Tensorflow implementation of variational autoencoder,github.com/hongzimao/vae,"Apr 14, 2017"
asahi417,ConditionalVariationalAutoEncoder,Implement Conditional VAE and train on MNIST by tensorflow 1.3.0.,github.com/asahi417/ConditionalVariationalAutoEncoder,"Nov 7, 2017"
azraelzhor,tf2-VAEAC,Variational Autoencoder with Arbitrary Conditioning for Image Inpainting in TensorFlow 2.0,github.com/azraelzhor/tf2-VAEAC,"Oct 18, 2019"
RobinKa,MetaVAE,Meta-learning by applying MAML to an inner variational auto-encoder to automatically learn generative models with few…,github.com/RobinKa/MetaVAE,"Jan 16, 2019"
choo8,tensorflow-VAE,Implementation of the Variational Auto-Encoder (VAE) in Tensorflow,github.com/choo8/tensorflow-VAE,"Sep 20, 2017"
songer1993,tfjs-vae,Variational Autoencoder implemented in Tensorflow.js,github.com/songer1993/tfjs-vae,"Jun 6, 2018"
san25dec,VAE,A simple variational autoencoder to generate images from MNIST. Implemented in TensorFlow.,github.com/san25dec/VAE,"Mar 5, 2017"
iamsoroush,face_vae,Implementation of Variational Auto-Encoder (VAE) and Deep Feature Consistent VAE for facial attribute manipulation us…,github.com/iamsoroush/face_vae,"Jul 7, 2019"
manfreddiaz,vae_tensorflow,Implementation of generative models from the Variational AutoEncoders family on Tensorflow,github.com/manfreddiaz/vae_tensorflow,"Jul 8, 2018"
sophieburkhardt,dirichlet-vae-topic-models,implementation of different Dirichlet Variational Autoencoder Topic Models in Tensorflow,github.com/sophieburkhardt/dirichlet-vae-topic-models,"Jul 31, 2019"
MitsukiUsui,vae,Variational Autoencoder in TensorFlow,github.com/MitsukiUsui/vae,"Jun 11, 2017"
zacheberhart,Maximum-Mean-Discrepancy-Variational-Autoencoder,"A PyTorch implementation of the MMD-VAE, an Information-Maximizing Variational Autoencoder (InfoVAE) based off of the T…",github.com/zacheberhart/Maximum-Mean-Discrepancy-Variational-Autoencoder,"Dec 21, 2018"
ondrejba,vae,Variational autoencoders implemented in Tensorflow.,github.com/ondrejba/vae,"Oct 18, 2019"
tusharsircar95,VAE-MNIST,Tensorflow implementation of Variational Autoencoder (VAE) trained on MNIST handwritten digits,github.com/tusharsircar95/VAE-MNIST,"Jun 13, 2019"
dorajam,VAEs,Variational Autoencoders in Tensorflow,github.com/dorajam/VAEs,"Sep 19, 2016"
gefeiwang,VAE,TensorFlow implementation for Variational Auto-Encoders,github.com/gefeiwang/VAE,"Aug 21, 2019"
KerrWu,VAE-tensorflow,Variational autoencoder on tensorflow,github.com/KerrWu/VAE-tensorflow,"Jan 7, 2019"
jtwang95,Variational-Autoencoder,tensorflow implementation of VAE,github.com/jtwang95/Variational-Autoencoder,"Nov 5, 2019"
MistQue,Variational-Autoencoder,Implement VAE by Tensorflow,github.com/MistQue/Variational-Autoencoder,"Mar 27, 2017"
jilljenn,vae,Variational Autoencoder using ZhuSuan or TensorFlow < 2,github.com/jilljenn/vae,"Nov 7, 2019"
DevKiHyun,VAE-Tensorflow,TensorFlow implementation of 'Variational Autoencoder',github.com/DevKiHyun/VAE-Tensorflow,"Nov 13, 2018"
mihaifieraru,VAE-TF,Variational Autoencoder in TensorFlow,github.com/mihaifieraru/VAE-TF,"Nov 9, 2016"
camigord,VAE-TensorFlow,Variational Autoencoder in TensorFlow,github.com/camigord/VAE-TensorFlow,"Dec 7, 2017"
deepblacksky,VAE_tf,VAE(Variational Auto-Encoder) tensorflow,github.com/deepblacksky/VAE_tf,"Aug 29, 2017"
abhiagwl,Improving_Inference_in_VAE,Code for the ongoing project on improving inference in variational autoencoder by using real non volume preserving tr…,github.com/abhiagwl/Improving_Inference_in_VAE,"Dec 10, 2017"
zyzisyz,vae-mnist-tf,mnist / variational autoencoder / tensorflow,github.com/zyzisyz/vae-mnist-tf,"Feb 19, 2019"
aodongli,VAE,Simple implementation of variational auto-encoder using tensorflow.,github.com/aodongli/VAE,"Jun 27, 2018"
au-re,vae,🎓 A simple variational autoencoder implementation,github.com/au-re/vae,"Apr 9, 2017"
Axel-Bravo,19_learning_vae,VAE | Variational Autoencoder,github.com/Axel-Bravo/19_learning_vae,"Apr 28, 2019"
abdulfatir,vae-tensorflow,Variational Auto-Encoder based on DC-GAN-like architecture,github.com/abdulfatir/vae-tensorflow,"Jun 8, 2018"
nnUyi,VAE,"A implement of VAE in paper ""Auto-Encoding Variational Bayes""",github.com/nnUyi/VAE,"Nov 12, 2017"
swyoon,ConvolutionalVAE-tensorflow,Convolutional Variational Autoencoder implemented in TensorFlow,github.com/swyoon/ConvolutionalVAE-tensorflow,"Jun 6, 2017"
thomas861205,DL-HW5,Variational autoencoder (VAE) for EMNIST,github.com/thomas861205/DL-HW5,"Jun 19, 2019"
pbrakel,vae-tf,A simple variational autoencoder implementation in TensorFlow,github.com/pbrakel/vae-tf,"Dec 26, 2016"
Nocty-chan,VariationalAutoEncoder-MNIST,Tensorflow implementation of a simple VAE for MNIST,github.com/Nocty-chan/VariationalAutoEncoder-MNIST,"Jan 24, 2018"
lucaslingle,tfp_vae,Variational Autoencoder using Tensorflow Probability library,github.com/lucaslingle/tfp_vae,"Nov 3, 2019"
mizti,vae_with_tf,Test implementation of Variational Autoencoder on TensorFlow,github.com/mizti/vae_with_tf,"May 20, 2017"
tumpji,VAE-NN-Tensorflow,Online Learning with the Variational Autoencoder and the Neural Network.,github.com/tumpji/VAE-NN-Tensorflow,"Aug 8, 2019"
Evilcoolkings,VAE_WakeSleep,"Variational Autoencoder, Wake Sleep algorithm, tensorflow",github.com/Evilcoolkings/VAE_WakeSleep,"Apr 12, 2017"
CharlesD1ng,tensorflow-mnist-vae,Tensorflow implementation of Variational Autoencoder on MNIST dataset,github.com/CharlesD1ng/tensorflow-mnist-vae,"Sep 10, 2018"
sagnibak,vaes,My personal experiments with variational autoencoders.,github.com/sagnibak/vaes,"Sep 4, 2018"
Baichenjia,VAEAC,Tensorflow version of Variational Autoencoder with Arbitrary Conditioning,github.com/Baichenjia/VAEAC,"Sep 17, 2019"
abdelhak-bouzourine,VAE-tensorflow,this repo contains an implementation of both vanilla autoencoder as well variational autoencoder,github.com/abdelhak-bouzourine/VAE-tensorflow,"Mar 27, 2018"
orybkin,VAE,4th Project for the Jianbo Shi's CIS680 course. (Variational) Autoencoders for CELEBA dataset. TensorFlow.,github.com/orybkin/VAE,"Jan 10, 2018"
Baichenjia,VAE-basic,tensorflow and keras for variational auto-encoder (VAE) model,github.com/Baichenjia/VAE-basic,"Apr 9, 2019"
Aditya-Ramesh-10,VAE-MNIST,Variational Autoencoder in tensorflow to generate MNIST digits.,github.com/Aditya-Ramesh-10/VAE-MNIST,"Aug 1, 2019"
Andre1998Shuvam,VAE-Keras,Implementation of Variational Autoencoders using Keras and Tensorflow,github.com/Andre1998Shuvam/VAE-Keras,"Aug 23, 2019"
meismaomao,VAE_MI,this is the Variational auto-encoder implemented by tensorflow,github.com/meismaomao/VAE_MI,"Nov 23, 2017"
koshian2,TPU-VAE,Variational Auto Encoder in TensorFlow/Keras by TPUs,github.com/koshian2/TPU-VAE,"Jan 10, 2019"
ShujaKhalid,VariationalAutoEncoders_and_GenerativeAdversarialNetworks_Playground,Coding VAEs and GANs from scratch using tensorflow and Keras,github.com/ShujaKhalid/VariationalAutoEncoders_and_GenerativeAdversarialNetworks_Playground,"Feb 10, 2018"
kenadams-80s,MNIST-VAE-Tensorflow,A simple implementation of Variational Autoencoder for MNIST in Tensorflow/Keras.,github.com/kenadams-80s/MNIST-VAE-Tensorflow,"Oct 21, 2019"
Hzaakk,FaceGenKerasVae,Generating faces using a variational autoencoder in Keras with Tensorflow,github.com/Hzaakk/FaceGenKerasVae,"Sep 20, 2019"
MINGUKKANG,Deep-Feature-Consistent-VAE,Tensorflow implementation of Deep Feature Consistent Variational AutoEncoder,github.com/MINGUKKANG/Deep-Feature-Consistent-VAE,"Nov 9, 2018"
Thanatine,Variational-Autoencoder-TensorFlow,IN PROGRESS. Implement RNN variational autoencoder (VAE) in TensorFlow 1.3,github.com/Thanatine/Variational-Autoencoder-TensorFlow,"Feb 14, 2018"
qq184861643,Variational-Auto-Encoder,VAE with tensorflow and pytorch implementation(self-exercise project),github.com/qq184861643/Variational-Auto-Encoder,"Apr 16, 2018"
lifa08,Implementation-of-Variational-Autoencoder-VAE-with-tensorflow,Implement VAE with tensorflow and train it with mnist dataset,github.com/lifa08/Implementation-of-Variational-Autoencoder-VAE-with-tensorflow,"Aug 19, 2018"
akar5h,Mixture-of-Expert-with-Variational-Autoencoder,Implementing Mixture of Expert using Discrete VAE with Tensorflow,github.com/akar5h/Mixture-of-Expert-with-Variational-Autoencoder,"Jan 8, 2019"
sherjilozair,vae-rnn,Variational Autoencoder with RNN-based encoder and decoder in Python using Tensorflow,github.com/sherjilozair/vae-rnn,"Dec 1, 2015"
aangfanboy,aldrin_vae,"Generating cartoon faces with variational autoencoder, built with TensorFlow 2.0-beta1",github.com/aangfanboy/aldrin_vae,"Sep 26, 2019"
prakamya-mishra,MNIST-VAE,Variational auto-encoder (VAE) to generate digit images from a noise distribution with TensorFlow,github.com/prakamya-mishra/MNIST-VAE,"Jul 15, 2018"
lkt23,celebfaces-mnist-VAEs-GANs,A self-learning project about Variational Autoencoders and Generative Adverserial Networks for generating realistic s…,github.com/lkt23/celebfaces-mnist-VAEs-GANs,"Oct 18, 2019"
gaborvecsei,Variational-Autoencoder,Variational-Autoencoder w/ Convolutional Layers,github.com/gaborvecsei/Variational-Autoencoder,"Mar 24, 2019"
mcherukara,vae_latent_space,Study latent space dimensionality on reconstruction accuracy in variational autoencoders using Keras and Tensorflow,github.com/mcherukara/vae_latent_space,"Dec 5, 2018"
aligholomoo,MNIST-Drawer-VAE,Implementation of a Variational Autoencoder to draw MNIST dataset characters using Tensorflow.,github.com/aligholomoo/MNIST-Drawer-VAE,"Feb 11, 2018"
PrateekMunjal,-Auto-Encoding-Variational-Bayes-aka-VAE,"A tensorflow implementation of Variational autoencoder. We present the results on real world datasets, namely; celebA…",github.com/PrateekMunjal/-Auto-Encoding-Variational-Bayes-aka-VAE,"Apr 16, 2019"
victor-iyiola,novel-mnist-generator-with-vae,Generating new MNIST handwritten digits with a Variational Auto Encoder (VAE),github.com/victor-iyiola/novel-mnist-generator-with-vae,"Dec 14, 2017"
SavyaSaachiVerma,VariationalAutoEncoder,Designed a VAE on Tensorflow which learned the features of MNIST digit and produced accurate images of MNIST digits u…,github.com/SavyaSaachiVerma/VariationalAutoEncoder,"Jan 19, 2019"
murtazav,CNN-plus-VAE,This is an implementation of CNN plus Variational Autoencoder using tensorflow for noising unwanted complex features …,github.com/murtazav/CNN-plus-VAE,"Jul 9, 2019"
wagglefoot,1D-convolutional-VAE-tensorflow,This repo contains a 1D variation on Metzen's original implementation of 2D conv. VAE in TF,github.com/wagglefoot/1D-convolutional-VAE-tensorflow,"Apr 4, 2017"
daQuincy,Variational-Autoencoder-for-Texts,Loose implementation of Gerating Sentences from a Continuous Space using Tensorflow,github.com/daQuincy/Variational-Autoencoder-for-Texts,"May 31, 2019"
lucylow,Ms.Robot,Machine Learning Fashion Modelling. Training a Variational Autoenconder (VAE) using the Keras TensorflowJS framework …,github.com/lucylow/Ms.Robot,"Nov 1, 2019"
